…
## The following objects are masked from 'package:stats':
## 
##     filter, lag

## The following objects are masked from 'package:base':
## 
##     intersect, setdiff, setequal, union

library(tidyr)
conflict_50 <- read.csv('/share/conflict_50Buffer_Stack.csv')
conflict_50_gb <- group_by(conflict_50, country)
conflict_50_gb_count <- summarize(conflict_50_gb, count = n())
conflict_50_gb_count

## # A tibble: 98 x 2
##        country count
##         <fctr> <int>
##  1 Afghanistan  8795
##  2     Algeria  1246
##  3      Angola   188
##  4     Armenia    11
##  5  Azerbaijan    22
##  6     Bahrain    19
##  7  Bangladesh   261
##  8     Belgium     3
##  9      Bhutan     1
## 10     Bolivia     4
## # ... with 88 more rows

Identify Instatnces of Loss and Total Conflict

conflict_50_gb$LossBinary <- conflict_50_gb$loss>0
count_conflict <- summarize(conflict_50_gb, count = n())
count_conflict

## # A tibble: 98 x 2
##        country count
##         <fctr> <int>
##  1 Afghanistan  8795
##  2     Algeria  1246
##  3      Angola   188
##  4     Armenia    11
##  5  Azerbaijan    22
##  6     Bahrain    19
##  7  Bangladesh   261
##  8     Belgium     3
##  9      Bhutan     1
## 10     Bolivia     4
## # ... with 88 more rows

Summarzie

total_conflict <- summarize(count_conflict, count = n())
test <- mutate(count_conflict, conflict_50_gb_count$count)
loss_byCountry <- summarize(conflict_50_gb, loss_sum = sum(loss), count = n())
loss_byCountry

## # A tibble: 98 x 3
##        country  loss_sum count
##         <fctr>     <dbl> <int>
##  1 Afghanistan  0.000000  8795
##  2     Algeria  3.081818  1246
##  3      Angola 18.219444   188
##  4     Armenia  0.000000    11
##  5  Azerbaijan  0.000000    22
##  6     Bahrain  0.000000    19
##  7  Bangladesh  0.000000   261
##  8     Belgium  0.000000     3
##  9      Bhutan  0.000000     1
## 10     Bolivia  0.000000     4
## # ... with 88 more rows

test <- mutate(loss_byCountry, prob = loss_sum / count)
test

## # A tibble: 98 x 4
##        country  loss_sum count        prob
##         <fctr>     <dbl> <int>       <dbl>
##  1 Afghanistan  0.000000  8795 0.000000000
##  2     Algeria  3.081818  1246 0.002473369
##  3      Angola 18.219444   188 0.096911939
##  4     Armenia  0.000000    11 0.000000000
##  5  Azerbaijan  0.000000    22 0.000000000
##  6     Bahrain  0.000000    19 0.000000000
##  7  Bangladesh  0.000000   261 0.000000000
##  8     Belgium  0.000000     3 0.000000000
##  9      Bhutan  0.000000     1 0.000000000
## 10     Bolivia  0.000000     4 0.000000000
## # ... with 88 more rows

Filter out only instances of loss

test_loss <- filter(test, prob > 0)
test_loss

## # A tibble: 37 x 4
##                     country    loss_sum count        prob
##                      <fctr>       <dbl> <int>       <dbl>
##  1                  Algeria  3.08181818  1246 0.002473369
##  2                   Angola 18.21944444   188 0.096911939
##  3                  Burundi  4.46388889   599 0.007452235
##  4 Central African Republic 66.27777778   737 0.089929142
##  5                     Chad  0.12500000   121 0.001033058
##  6                 Colombia 18.98813131  1381 0.013749552
##  7                    Congo  2.58333333    34 0.075980392
##  8         DR Congo (Zaire) 95.72070707  1550 0.061755295
##  9                 Ethiopia  1.79166667   921 0.001945349
## 10                Guatemala  0.09090909    17 0.005347594
## # ... with 27 more rows
…
